[
  {
    "title": "Toggle Switch",
    "content": "This is an alternative to jQuery collapse stuff\n\n### CSS\n\n```css\n:root {\n    --color-cool-gray: #6b7280;\n    --color-red: #ef4444;\n    --color-amber: #f59e0b;\n    --color-emerald: #10b981;\n    --color-blue: #3b82f6;\n    --color-indigo: #6366f1;\n    --color-violet: #8b5cf6;\n    --color-pink: #ec4899;\n  }\n\n  .switch {\n    position: relative;\n    display: inline-block;\n    width: 40px;\n    height: 20px;\n    background-color: rgba(0, 0, 0, 0.25);\n    border-radius: 20px;\n    transition: all 0.25s;\n  }\n\n  .switch::after {\n    content: '';\n    position: absolute;\n    width: 16px;\n    height: 16px;\n    border-radius: 16px;\n    background-color: #fff;\n    top: 2px;\n    left: 2px;\n    transition: all 0.25s;\n  }\n\n  input[type='checkbox']:checked + .switch::after {\n    transform: translateX(20px);\n  }\n\n  input[type='checkbox']:checked + .switch {\n    background-color: var(--color-cool-gray);\n  }\n\n  input[type='checkbox']:checked + .switch.red {\n    background-color: var(--color-red);\n  }\n\n  input[type='checkbox']:checked + .switch.yellow {\n    background-color: var(--color-amber);\n  }\n\n  input[type='checkbox']:checked + .switch.green {\n    background-color: var(--color-emerald);\n  }\n\n  input[type='checkbox']:checked + .switch.blue {\n    background-color: var(--color-blue);\n  }\n\n  input[type='checkbox']:checked + .switch.indigo {\n    background-color: var(--color-indigo);\n  }\n\n  input[type='checkbox']:checked + .switch.purple {\n    background-color: var(--color-violet);\n  }\n\n  input[type='checkbox']:checked + .switch.pink {\n    background-color: var(--color-pink);\n  }\n\n  .offscreen {\n    position: absolute;\n    left: -9999px;\n  }\n```\n\n\n### HTML\n\n```markup\n<!DOCTYPE html>\n  <html lang=\"en\">\n    <head>\n      <meta charset=\"utf-8\" />\n      <meta\n        name=\"viewport\"\n        content=\"width=device-width, initial-scale=1, shrink-to-fit=no\" />\n      <meta name=\"theme-color\" content=\"#000000\" />\n      <title>Toggle Switch</title>\n      <link href=\"./index.css\" rel=\"stylesheet\" />\n    </head>\n\n    <body>\n      <div>\n        <input type=\"checkbox\" id=\"toggle\" class=\"offscreen\" />\n        <label for=\"toggle\" class=\"switch\"></label>\n      </div>\n\n      <div>\n        <input type=\"checkbox\" id=\"red\" class=\"offscreen\" />\n        <label for=\"red\" class=\"switch red\"></label>\n      </div>\n\n      <div>\n        <input type=\"checkbox\" id=\"amber\" class=\"offscreen\" />\n        <label for=\"amber\" class=\"switch yellow\"></label>\n      </div>\n\n      <div>\n        <input type=\"checkbox\" id=\"emerald\" class=\"offscreen\" />\n        <label for=\"emerald\" class=\"switch green\"></label>\n      </div>\n\n      <div>\n        <input type=\"checkbox\" id=\"blue\" class=\"offscreen\" />\n        <label for=\"blue\" class=\"switch blue\"></label>\n      </div>\n\n      <div>\n        <input type=\"checkbox\" id=\"indigo\" class=\"offscreen\" />\n        <label for=\"indigo\" class=\"switch indigo\"></label>\n      </div>\n\n      <div>\n        <input type=\"checkbox\" id=\"violet\" class=\"offscreen\" />\n        <label for=\"violet\" class=\"switch purple\"></label>\n      </div>\n\n      <div>\n        <input type=\"checkbox\" id=\"pink\" class=\"offscreen\" />\n        <label for=\"pink\" class=\"switch pink\"></label>\n      </div>\n    </body>\n  </html>\n```\n\n\n",
    "categories": [
      {
        "title": "HTML",
        "subTitle": "HyperText Markup Language"
      },
      {
        "title": "CSS",
        "subTitle": "Cascade StyleSheet"
      }
    ]
  }
]
